{
    "page": 1,
    "total_results": 10000,
    "total_pages": 500,
    "results": [
        {
            "popularity": 123.226,
            "vote_count": 165,
            "video": false,
            "poster_path": "/qnlChF8U4diiykXQYs1miigGy7t.jpg",
            "id": 706503,
            "adult": false,
            "backdrop_path": "/t4mzypFVjY6toyBXAmfrIaWcUXa.jpg",
            "original_language": "fr",
            "original_title": "Balle perdue",
            "genre_ids": [
                28,
                80,
                53
            ],
            "title": "Lost Bullet",
            "vote_average": 6.8,
            "overview": "A small time delinquent, turned police mechanic for a go fast task force, is forced to defend his innocence when his mentor is killed by dirty cops.",
            "release_date": "2020-06-19"
        },
        {
            "popularity": 117.793,
            "vote_count": 4784,
            "video": false,
            "poster_path": "/aQvJ5WPzZgYVDrxLX4R6cLJCEaQ.jpg",
            "id": 454626,
            "adult": false,
            "backdrop_path": "/stmYfCUGd8Iy6kAMBr6AmWqx8Bq.jpg",
            "original_language": "en",
            "original_title": "Sonic the Hedgehog",
            "genre_ids": [
                28,
                35,
                878,
                10751
            ],
            "title": "Sonic the Hedgehog",
            "vote_average": 7.5,
            "overview": "Based on the global blockbuster videogame franchise from Sega, Sonic the Hedgehog tells the story of the world\u2019s speediest hedgehog as he embraces his new home on Earth. In this live-action adventure comedy, Sonic and his new best friend team up to defend the planet from the evil genius Dr. Robotnik and his plans for world domination.",
            "release_date": "2020-02-12"
        },
        {
            "popularity": 82.688,
            "vote_count": 18663,
            "video": false,
            "poster_path": "/7WsyChQLEftFiDOVTGkv3hFpyyt.jpg",
            "id": 299536,
            "adult": false,
            "backdrop_path": "/lmZFxXgJE3vgrciwuDib0N8CfQo.jpg",
            "original_language": "en",
            "original_title": "Avengers: Infinity War",
            "genre_ids": [
                28,
                12,
                878
            ],
            "title": "Avengers: Infinity War",
            "vote_average": 8.3,
            "overview": "As the Avengers and their allies have continued to protect the world from threats too large for any one hero to handle, a new danger has emerged from the cosmic shadows: Thanos. A despot of intergalactic infamy, his goal is to collect all six Infinity Stones, artifacts of unimaginable power, and use them to inflict his twisted will on all of reality. Everything the Avengers have fought for has led up to this moment - the fate of Earth and existence itself has never been more uncertain.",
            "release_date": "2018-04-25"
        },
        {
            "popularity": 52.484,
            "vote_count": 187,
            "video": false,
            "poster_path": "/hau6iHAIWJmlnaaZ0QRYZu9T6B1.jpg",
            "id": 130267,
            "adult": false,
            "backdrop_path": "/dcXgShktPpOLhmd8iVWhxPn6OgM.jpg",
            "original_language": "en",
            "original_title": "Seal Team Six: The Raid on Osama Bin Laden",
            "genre_ids": [
                28,
                80,
                18,
                53
            ],
            "title": "Seal Team Six: The Raid on Osama Bin Laden",
            "vote_average": 5.9,
            "overview": "When the rumored whereabouts of Osama bin Laden are revealed, the CIA readies a team of seasoned U.S. Navy SEALs for the mission of a lifetime. Despite inconclusive evidence that bin Laden is inside the compound, and ignoring the possible ramifications of an unannounced attack on Pakistani soil, the Pentagon orders the attack. The SEAL Team bands together to complete their mission of justice in a riveting final showdown.",
            "release_date": "2012-11-04"
        },
        {
            "popularity": 60.355,
            "vote_count": 9948,
            "video": false,
            "poster_path": "/xT98tLqatZPQApyRmlPL12LtiWp.jpg",
            "id": 122917,
            "adult": false,
            "backdrop_path": "/bVmSXNgH1gpHYTDyF9Q826YwJT5.jpg",
            "original_language": "en",
            "original_title": "The Hobbit: The Battle of the Five Armies",
            "genre_ids": [
                28,
                12,
                14
            ],
            "title": "The Hobbit: The Battle of the Five Armies",
            "vote_average": 7.3,
            "overview": "Immediately after the events of The Desolation of Smaug, Bilbo and the dwarves try to defend Erebor's mountain of treasure from others who claim it: the men of the ruined Laketown and the elves of Mirkwood. Meanwhile an army of Orcs led by Azog the Defiler is marching on Erebor, fueled by the rise of the dark lord Sauron. Dwarves, elves and men must unite, and the hope for Middle-Earth falls into Bilbo's hands.",
            "release_date": "2014-12-10"
        },
        {
            "popularity": 70.294,
            "vote_count": 5001,
            "video": false,
            "poster_path": "/db32LaOibwEliAmSL2jjDF6oDdj.jpg",
            "id": 181812,
            "adult": false,
            "backdrop_path": "/jOzrELAzFxtMx2I4uDGHOotdfsS.jpg",
            "original_language": "en",
            "original_title": "Star Wars: The Rise of Skywalker",
            "genre_ids": [
                28,
                12,
                878
            ],
            "title": "Star Wars: The Rise of Skywalker",
            "vote_average": 6.5,
            "overview": "The surviving Resistance faces the First Order once again as the journey of Rey, Finn and Poe Dameron continues. With the power and knowledge of generations behind them, the final battle begins.",
            "release_date": "2019-12-18"
        },
        {
            "popularity": 78.316,
            "vote_count": 12,
            "video": false,
            "poster_path": "/ucktgbaMSaETUDLUBp1ubGD6aNj.jpg",
            "id": 619592,
            "adult": false,
            "backdrop_path": "/jAtO4ci8Tr5jDmg33XF3OZ8VPah.jpg",
            "original_language": "en",
            "original_title": "Force of Nature",
            "genre_ids": [
                28,
                18
            ],
            "title": "Force of Nature",
            "vote_average": 5.7,
            "overview": "A gang of thieves plan a heist during a hurricane and encounter trouble when a disgraced cop tries to force everyone in the building to evacuate.",
            "release_date": "2020-07-02"
        },
        {
            "popularity": 71.747,
            "vote_count": 5513,
            "video": false,
            "poster_path": "/iZf0KyrE25z1sage4SYFLCCrMi9.jpg",
            "id": 530915,
            "adult": false,
            "backdrop_path": "/cqa3sa4c4jevgnEJwq3CMF8UfTG.jpg",
            "original_language": "en",
            "original_title": "1917",
            "genre_ids": [
                28,
                18,
                36,
                10752
            ],
            "title": "1917",
            "vote_average": 7.9,
            "overview": "At the height of the First World War, two young British soldiers must cross enemy territory and deliver a message that will stop a deadly attack on hundreds of soldiers.",
            "release_date": "2019-12-25"
        },
        {
            "popularity": 70.659,
            "vote_count": 4678,
            "video": false,
            "poster_path": "/h4VB6m0RwcicVEZvzftYZyKXs6K.jpg",
            "id": 495764,
            "adult": false,
            "backdrop_path": "/9xNOiv6DZZjH7ABoUUDP0ZynouU.jpg",
            "original_language": "en",
            "original_title": "Birds of Prey (and the Fantabulous Emancipation of One Harley Quinn)",
            "genre_ids": [
                28,
                35,
                80
            ],
            "title": "Birds of Prey (and the Fantabulous Emancipation of One Harley Quinn)",
            "vote_average": 7.2,
            "overview": "Harley Quinn joins forces with a singer, an assassin and a police detective to help a young girl who had a hit placed on her after she stole a rare diamond from a crime lord.",
            "release_date": "2020-02-05"
        },
        {
            "popularity": 66.637,
            "vote_count": 2513,
            "video": false,
            "poster_path": "/wlfDxbGEsW58vGhFljKkcR5IxDj.jpg",
            "id": 545609,
            "adult": false,
            "backdrop_path": "/1R6cvRtZgsYCkh8UFuWFN33xBP4.jpg",
            "original_language": "en",
            "original_title": "Extraction",
            "genre_ids": [
                28,
                18,
                53
            ],
            "title": "Extraction",
            "vote_average": 7.4,
            "overview": "Tyler Rake, a fearless mercenary who offers his services on the black market, embarks on a dangerous mission when he is hired to rescue the kidnapped son of a Mumbai crime lord\u2026",
            "release_date": "2020-04-24"
        },
        {
            "popularity": 61.862,
            "vote_count": 2479,
            "video": false,
            "poster_path": "/vqzNJRH4YyquRiWxCCOH0aXggHI.jpg",
            "id": 290859,
            "adult": false,
            "backdrop_path": "/a6cDxdwaQIFjSkXf7uskg78ZyTq.jpg",
            "original_language": "en",
            "original_title": "Terminator: Dark Fate",
            "genre_ids": [
                28,
                12,
                878
            ],
            "title": "Terminator: Dark Fate",
            "vote_average": 6.5,
            "overview": "Decades after Sarah Connor prevented Judgment Day, a lethal new Terminator is sent to eliminate the future leader of the resistance. In a fight to save mankind, battle-hardened Sarah Connor teams up with an unexpected ally and an enhanced super soldier to stop the deadliest Terminator yet.",
            "release_date": "2019-10-23"
        },
        {
            "popularity": 65.077,
            "vote_count": 7677,
            "video": false,
            "poster_path": "/4q2NNj4S5dG2RLF9CpXsej7yXl.jpg",
            "id": 429617,
            "adult": false,
            "backdrop_path": "/3o4NzKxeGSSsrrHnwGKrd3qHK0V.jpg",
            "original_language": "en",
            "original_title": "Spider-Man: Far from Home",
            "genre_ids": [
                28,
                12,
                878
            ],
            "title": "Spider-Man: Far from Home",
            "vote_average": 7.5,
            "overview": "Peter Parker and his friends go on a summer trip to Europe. However, they will hardly be able to rest - Peter will have to agree to help Nick Fury uncover the mystery of creatures that cause natural disasters and destruction throughout the continent.",
            "release_date": "2019-06-28"
        },
        {
            "popularity": 52.22,
            "vote_count": 4440,
            "video": false,
            "poster_path": "/y95lQLnuNKdPAzw9F9Ab8kJ80c3.jpg",
            "id": 38700,
            "adult": false,
            "backdrop_path": "/upUy2QhMZEmtypPW3PdieKLAHxh.jpg",
            "original_language": "en",
            "original_title": "Bad Boys for Life",
            "genre_ids": [
                28,
                80,
                53
            ],
            "title": "Bad Boys for Life",
            "vote_average": 7.2,
            "overview": "Marcus and Mike are forced to confront new threats, career changes, and midlife crises as they join the newly created elite team AMMO of the Miami police department to take down the ruthless Armando Armas, the vicious leader of a Miami drug cartel.",
            "release_date": "2020-01-15"
        },
        {
            "popularity": 61.933,
            "vote_count": 26260,
            "video": false,
            "poster_path": "/9gk7adHYeDvHkCSEqAvQNLV5Uge.jpg",
            "id": 27205,
            "adult": false,
            "backdrop_path": "/s3TBrRGB1iav7gFOCNx3H31MoES.jpg",
            "original_language": "en",
            "original_title": "Inception",
            "genre_ids": [
                28,
                12,
                878
            ],
            "title": "Inception",
            "vote_average": 8.3,
            "overview": "Cobb, a skilled thief who commits corporate espionage by infiltrating the subconscious of his targets is offered a chance to regain his old life as payment for a task considered to be impossible: \"inception\", the implantation of another person's idea into a target's subconscious.",
            "release_date": "2010-07-15"
        },
        {
            "popularity": 49.618,
            "vote_count": 13857,
            "video": false,
            "poster_path": "/6FfCtAuVAW8XJjZ7eWeLibRLWTw.jpg",
            "id": 11,
            "adult": false,
            "backdrop_path": "/zqkmTXzjkAgXmEWLRsY4UpTWCeo.jpg",
            "original_language": "en",
            "original_title": "Star Wars",
            "genre_ids": [
                28,
                12,
                878
            ],
            "title": "Star Wars",
            "vote_average": 8.2,
            "overview": "Princess Leia is captured and held hostage by the evil Imperial forces in their effort to take over the galactic Empire. Venturesome Luke Skywalker and dashing captain Han Solo team together with the loveable robot duo R2-D2 and C-3PO to rescue the beautiful princess and restore peace and justice in the Empire.",
            "release_date": "1977-05-25"
        },
        {
            "popularity": 53.267,
            "vote_count": 2703,
            "video": false,
            "poster_path": "/8WUVHemHFH2ZIP6NWkwlHWsyrEL.jpg",
            "id": 338762,
            "adult": false,
            "backdrop_path": "/lP5eKh8WOcPysfELrUpGhHJGZEH.jpg",
            "original_language": "en",
            "original_title": "Bloodshot",
            "genre_ids": [
                28,
                878
            ],
            "title": "Bloodshot",
            "vote_average": 7,
            "overview": "After he and his wife are murdered, marine Ray Garrison is resurrected by a team of scientists. Enhanced with nanotechnology, he becomes a superhuman, biotech killing machine\u2014'Bloodshot'. As Ray first trains with fellow super-soldiers, he cannot recall anything from his former life. But when his memories flood back and he remembers the man that killed both him and his wife, he breaks out of the facility to get revenge, only to discover that there's more to the conspiracy than he thought.",
            "release_date": "2020-03-05"
        },
        {
            "popularity": 53.625,
            "vote_count": 22601,
            "video": false,
            "poster_path": "/qJ2tW6WMUDux911r6m7haRef0WH.jpg",
            "id": 155,
            "adult": false,
            "backdrop_path": "/cfT29Im5VDvjE0RpyKOSdCKZal7.jpg",
            "original_language": "en",
            "original_title": "The Dark Knight",
            "genre_ids": [
                28,
                80,
                18,
                53
            ],
            "title": "The Dark Knight",
            "vote_average": 8.4,
            "overview": "Batman raises the stakes in his war on crime. With the help of Lt. Jim Gordon and District Attorney Harvey Dent, Batman sets out to dismantle the remaining criminal organizations that plague the streets. The partnership proves to be effective, but they soon find themselves prey to a reign of chaos unleashed by a rising criminal mastermind known to the terrified citizens of Gotham as the Joker.",
            "release_date": "2008-07-16"
        },
        {
            "popularity": 43.982,
            "vote_count": 14416,
            "video": false,
            "poster_path": "/c24sv2weTHPsmDa7jEMN0m2P3RT.jpg",
            "id": 315635,
            "adult": false,
            "backdrop_path": "/vc8bCGjdVp0UbMNLzHnHSLRbBWQ.jpg",
            "original_language": "en",
            "original_title": "Spider-Man: Homecoming",
            "genre_ids": [
                28,
                12,
                18,
                878
            ],
            "title": "Spider-Man: Homecoming",
            "vote_average": 7.4,
            "overview": "Following the events of Captain America: Civil War, Peter Parker, with the help of his mentor Tony Stark, tries to balance his life as an ordinary high school student in Queens, New York City, with fighting crime as his superhero alter ego Spider-Man as a new threat, the Vulture, emerges.",
            "release_date": "2017-07-05"
        },
        {
            "popularity": 41.492,
            "vote_count": 6137,
            "video": false,
            "poster_path": "/oZRVDpNtmHk8M1VYy1aeOWUXgbC.jpg",
            "id": 87101,
            "adult": false,
            "backdrop_path": "/2ZbnHeSwwwejcOa5DkSienBFLA8.jpg",
            "original_language": "en",
            "original_title": "Terminator Genisys",
            "genre_ids": [
                28,
                12,
                878,
                53
            ],
            "title": "Terminator Genisys",
            "vote_average": 5.9,
            "overview": "The year is 2029. John Connor, leader of the resistance continues the war against the machines. At the Los Angeles offensive, John's fears of the unknown future begin to emerge when TECOM spies reveal a new plot by SkyNet that will attack him from both fronts; past and future, and will ultimately change warfare forever.",
            "release_date": "2015-06-23"
        },
        {
            "popularity": 50.635,
            "vote_count": 1760,
            "video": false,
            "poster_path": "/fapXd3v9qTcNBTm39ZC4KUVQDNf.jpg",
            "id": 423204,
            "adult": false,
            "backdrop_path": "/k2WyDw2NTUIWnuEs5gT7wgrCQg6.jpg",
            "original_language": "en",
            "original_title": "Angel Has Fallen",
            "genre_ids": [
                28,
                53
            ],
            "title": "Angel Has Fallen",
            "vote_average": 6.3,
            "overview": "After a treacherous attack, Secret Service agent Mike Banning is charged with attempting to assassinate President Trumbull. Chased by his own colleagues and the FBI, Banning begins a race against the clock to clear his name.",
            "release_date": "2019-08-21"
        }
    ]
}